%YAML 1.1
%TAG !u! tag:unity3d.com,2011:
--- !u!114 &11400000
MonoBehaviour:
  m_ObjectHideFlags: 0
  m_CorrespondingSourceObject: {fileID: 0}
  m_PrefabInstance: {fileID: 0}
  m_PrefabAsset: {fileID: 0}
  m_GameObject: {fileID: 0}
  m_Enabled: 1
  m_EditorHideFlags: 0
  m_Script: {fileID: 11500000, guid: f0598980a22146e5bb63df7b024cf2b0, type: 3}
  m_Name: ClientPrefabMapping
  m_EditorClassIdentifier: 
  EntityRepresentationResolvers:
  - id: 0
  - id: 1
  references:
    version: 1
    00000000:
      type: {class: SimpleEntityResolver, ns: Improbable.Gdk.Core.Representation.Types,
        asm: Improbable.Gdk.Core}
      data:
        entityType: Player
        prefab: {fileID: 8221743553494943784, guid: 4acda8a4e7c8777449019981ef1a7c37,
          type: 3}
        requiredComponents: 
    00000001:
      type: {class: SimpleEntityResolver, ns: Improbable.Gdk.Core.Representation.Types,
        asm: Improbable.Gdk.Core}
      data:
        entityType: Sphere
        prefab: {fileID: 6947439237003002663, guid: 915f3dcc803e2cc43be67d99483817b6,
          type: 3}
        requiredComponents: 
